…
We group our information by date and continent to find out how many each
continenthad every day. We use the commands group\_by and summarize
again.

    # New cases per date and continent lines graphic 

    new.table.2 %>%
      
      group_by (date, continent) %>%
      
      summarize (cases.per.date  = mean (new_cases), .groups = 'drop') 

    ## # A tibble: 3,790 x 3
    ##    date       continent     cases.per.date
    ##    <date>     <chr>                  <dbl>
    ##  1 2020-01-01 North America             NA
    ##  2 2020-01-01 South America             NA
    ##  3 2020-01-02 North America             NA
    ##  4 2020-01-02 South America             NA
    ##  5 2020-01-03 North America             NA
    ##  6 2020-01-03 South America             NA
    ##  7 2020-01-04 Asia                      NA
    ##  8 2020-01-04 North America             NA
    ##  9 2020-01-04 South America             NA
    ## 10 2020-01-05 Asia                      NA
    ## # ... with 3,780 more rows
…
    # density graphic 


    new.table.2 %>%
      
      group_by (continent, aged_65_older) %>%
      
      summarize (average.aged.65.older  = mean (aged_65_older), .groups = 'drop') 

    ## # A tibble: 194 x 3
    ##    continent aged_65_older average.aged.65.older
    ##    <chr>             <dbl>                 <dbl>
    ##  1 Africa             2.17                  2.17
    ##  2 Africa             2.34                  2.34
    ##  3 Africa             2.40                  2.40
    ##  4 Africa             2.41                  2.41
    ##  5 Africa             2.48                  2.48
    ##  6 Africa             2.49                  2.49
    ##  7 Africa             2.52                  2.52
    ##  8 Africa             2.54                  2.54
    ##  9 Africa             2.55                  2.55
    ## 10 Africa             2.56                  2.56
    ## # ... with 184 more rows
…
